tb_diag.vcd
$date
	Sat Mar  7 16:36:29 2026
$end
$version
	Icarus Verilog
$end
$timescale
	1ps
$end
$scope module tb_backend_diag $end
$var wire 3 ! fsm_state [2:0] $end
$var wire 1 " fsm_sync1 $end
$var wire 1 # fsm_sync2 $end
$var wire 3 $ ser_count [2:0] $end
$var wire 5 % ser_d [4:0] $end
$var wire 1 & ser_final_stop $end
$var wire 1 ' ser_ready $end
$var wire 1 ( ser_stop $end
$var wire 1 ) o_resetbvco $end
$var wire 1 * o_resetb2 $end
$var wire 1 + o_resetb1 $end
$var wire 1 , o_ready $end
$var wire 3 - o_gainA2 [2:0] $end
$var wire 2 . o_gainA1 [1:0] $end
$var reg 1 / i_clk $end
$var reg 1 0 i_resetbAll $end
$var reg 1 1 i_sclk $end
$var reg 1 2 i_sdin $end
$var reg 1 3 i_vco_clk $end
$scope module dut $end
$var wire 1 / i_clk $end
$var wire 1 0 i_resetbAll $end
$var wire 1 1 i_sclk $end
$var wire 1 2 i_sdin $end
$var wire 1 3 i_vco_clk $end
$var wire 1 4 ready_serial $end
$var wire 1 ) o_resetbvco $end
$var wire 1 * o_resetb2 $end
$var wire 1 + o_resetb1 $end
$var wire 1 , o_ready $end
$var wire 3 5 o_gainA2 [2:0] $end
$var wire 2 6 o_gainA1 [1:0] $end
$scope module fsm $end
$var wire 1 / i_clk $end
$var wire 1 0 reset_all $end
$var wire 1 4 ready_serial $end
$var parameter 3 7 DONE $end
$var parameter 3 8 RST $end
$var parameter 3 9 SET_AMPS $end
$var parameter 3 : SET_VCO $end
$var parameter 3 ; WAIT_10A $end
$var parameter 3 < WAIT_10B $end
$var parameter 3 = WAIT_2CYC $end
$var parameter 3 > WAIT_SERIAL $end
$var reg 4 ? counter [3:0] $end
$var reg 3 @ current_state [2:0] $end
$var reg 3 A next_state [2:0] $end
$var reg 1 , o_ready $end
$var reg 1 + o_resetb1 $end
$var reg 1 * o_resetb2 $end
$var reg 1 ) o_resetbvco $end
$var reg 1 B ready_sync1 $end
$var reg 1 C ready_sync2 $end
$upscope $end
$scope module ser $end
$var wire 1 0 i_reset $end
$var wire 1 1 i_sclk $end
$var wire 1 2 i_sdin $end
$var reg 3 D count [2:0] $end
$var reg 5 E d [4:0] $end
$var reg 1 F final_stop $end
$var reg 2 G o_gainA1 [1:0] $end
$var reg 3 H o_gainA2 [2:0] $end
$var reg 1 4 ready_serial $end
$var reg 1 I stop $end
$upscope $end
$upscope $end
$upscope $end
$enddefinitions $end
$comment Show the parameter values. $end
$dumpall
b1 >
b10 =
b110 <
b100 ;
b11 :
b101 9
b0 8
b111 7
$end
#0
$dumpvars
0I
b0 H
b0 G
0F
b0 E
b0 D
xC
xB
b0 A
bx @
bx ?
b0 6
b0 5
04
03
02
11
00
0/
b0 .
b0 -
0,
0+
0*
0)
0(
0'
0&
b0 %
b0 $
x#
x"
bx !
$end
#2500
0#
0C
0"
0B
b0 !
b0 @
b0 ?
1/
#5000
0/
#7500
1/
#10000
0/
#12500
1/
#15000
0/
#17500
1/
#20000
0/
#22500
1/
#25000
0/
#27500
1/
#30000
0/
#32500
1/
#35000
0/
#37500
1/
#40000
0/
#42500
1/
#45000
0/
#47500
1/
#50000
0/
#52500
1/
#55000
0/
#57500
1/
#60000
0/
#62500
1/
#65000
0/
#67500
1/
#70000
0/
#72500
1/
#75000
0/
#77500
1/
#80000
0/
#82500
1/
#85000
0/
#87500
1/
#90000
0/
#92500
1/
#95000
0/
#97500
1/
#100000
0/
#102500
1/
#105000
0/
#107500
1/
#110000
0/
01
#112500
1/
#115000
0/
#117500
1/
#120000
0/
#122500
1/
#125000
0/
#127500
1/
#130000
0/
#132500
1/
#135000
0/
#137500
1/
#140000
0/
#142500
1/
#145000
0/
#147500
1/
#150000
0/
#152500
1/
#155000
0/
#157500
1/
#160000
0/
#162500
1/
#165000
0/
#167500
1/
#170000
0/
#172500
1/
#175000
0/
#177500
1/
#180000
0/
#182500
1/
#185000
0/
#187500
1/
#190000
0/
#192500
1/
#195000
0/
#197500
1/
#200000
0/
#202500
1/
#205000
0/
#207500
1/
#210000
0/
11
#212500
1/
#215000
0/
#217500
1/
#220000
0/
#222500
1/
#225000
0/
#227500
1/
#230000
0/
#232500
1/
#235000
0/
#237500
1/
#240000
0/
#242500
1/
#245000
0/
#247500
1/
#250000
0/
#252500
1/
#255000
0/
#257500
1/
#260000
0/
#262500
1/
#265000
0/
#267500
1/
#270000
0/
#272500
1/
#275000
0/
#277500
1/
#280000
0/
#282500
1/
#285000
0/
#287500
1/
#290000
0/
#292500
1/
#295000
0/
#297500
1/
#300000
0/
#302500
1/
#305000
0/
#307500
1/
#310000
0/
01
#312500
1/
#315000
0/
#317500
1/
#320000
0/
#322500
1/
#325000
0/
#327500
1/
#330000
0/
#332500
1/
#335000
0/
#337500
1/
#340000
0/
#342500
1/
#345000
0/
#347500
1/
#350000
0/
#352500
1/
#355000
0/
#357500
1/
#360000
0/
#362500
1/
#365000
0/
#367500
1/
#370000
0/
#372500
1/
#375000
0/
#377500
1/
#380000
0/
#382500
1/
#385000
0/
#387500
1/
#390000
0/
#392500
1/
#395000
0/
#397500
1/
#400000
0/
#402500
1/
#405000
0/
#407500
1/
#410000
0/
11
#412500
1/
#415000
0/
#417500
1/
#420000
0/
#422500
1/
#425000
0/
#427500
1/
#430000
0/
#432500
1/
#435000
0/
#437500
1/
#440000
0/
#442500
1/
#445000
0/
#447500
1/
#450000
0/
#452500
1/
#455000
0/
#457500
1/
#460000
0/
#462500
1/
#465000
0/
#467500
1/
#470000
0/
#472500
1/
#475000
0/
#477500
1/
#480000
0/
#482500
1/
#485000
0/
#487500
1/
#490000
0/
#492500
1/
#495000
0/
#497500
1/
#500000
0/
#502500
1/
#505000
0/
#507500
1/
#510000
0/
01
#512500
1/
#515000
0/
#517500
1/
#520000
0/
#522500
1/
#525000
0/
#527500
1/
#530000
0/
#532500
1/
#535000
0/
#537500
1/
#540000
0/
#542500
1/
#545000
0/
#547500
1/
#550000
0/
#552500
1/
#555000
0/
#557500
1/
#560000
0/
#562500
1/
#565000
0/
#567500
1/
#570000
0/
#572500
1/
#575000
0/
#577500
1/
#580000
0/
#582500
1/
#585000
0/
#587500
1/
#590000
0/
#592500
1/
#595000
0/
#597500
1/
#600000
0/
#602500
1/
#605000
0/
#607500
1/
#610000
0/
11
#612500
1/
#615000
0/
#617500
1/
#620000
0/
#622500
1/
#625000
0/
#627500
1/
#628500
b1 A
10
#630000
0/
#632500
b1 !
b1 @
1/
#635000
0/
#637500
b1 ?
1/
#640000
0/
#642500
b10 ?
1/
#645000
0/
#647500
b11 ?
1/
#650000
0/
#652500
b100 ?
1/
#655000
0/
#657500
b101 ?
1/
#660000
0/
#662500
b110 ?
1/
#665000
0/
#667500
b111 ?
1/
#670000
0/
#672500
b1000 ?
1/
#675000
0/
#677500
b1001 ?
1/
#680000
0/
#682500
b1010 ?
1/
#685000
0/
#687500
b1011 ?
1/
#690000
0/
#692500
b1100 ?
1/
#695000
0/
#697500
b1101 ?
1/
#700000
0/
#702500
b1110 ?
1/
#705000
0/
#707500
b1111 ?
1/
#710000
0/
#712500
b0 ?
1/
#715000
0/
#717500
b1 ?
1/
#720000
0/
#722500
b10 ?
1/
#725000
0/
#727500
b11 ?
1/
#730000
0/
#732500
b100 ?
1/
#735000
0/
#737500
b101 ?
1/
#740000
0/
#742500
b110 ?
1/
01
#745000
0/
#747500
b111 ?
1/
#750000
0/
#752500
b1000 ?
1/
#755000
0/
#757500
b1001 ?
1/
#760000
0/
#762500
b1010 ?
1/
#765000
0/
#767500
b1011 ?
1/
#770000
0/
#772500
b1100 ?
1/
#775000
0/
#777500
b1101 ?
1/
#780000
0/
#782500
b1110 ?
1/
#785000
0/
#787500
b1111 ?
1/
#790000
0/
#792500
b0 ?
1/
#795000
0/
#797500
b1 ?
1/
#800000
0/
#802500
b10 ?
1/
#805000
0/
#807500
b11 ?
1/
#810000
0/
#812500
b100 ?
1/
#815000
0/
#817500
b101 ?
1/
#820000
0/
#822500
b110 ?
1/
#825000
0/
#827500
b111 ?
1/
#830000
0/
#832500
b1000 ?
1/
#835000
0/
#837500
b1001 ?
1/
#840000
0/
#842500
b1010 ?
b1 $
b1 D
1/
11
#845000
0/
#847500
b1011 ?
1/
#850000
0/
#852500
b1100 ?
1/
#855000
0/
#857500
b1101 ?
1/
#860000
0/
#862500
b1110 ?
1/
#865000
0/
#867500
b1111 ?
1/
#870000
0/
#872500
b0 ?
1/
#875000
0/
#877500
b1 ?
1/
#880000
0/
#882500
b10 ?
1/
#885000
0/
#887500
b11 ?
1/
#890000
0/
#892500
b100 ?
1/
#895000
0/
#897500
b101 ?
1/
#900000
0/
#902500
b110 ?
1/
#905000
0/
#907500
b111 ?
1/
#910000
0/
#912500
b1000 ?
1/
#915000
0/
#917500
b1001 ?
1/
#920000
0/
#922500
b1010 ?
1/
#925000
0/
#927500
b1011 ?
1/
#930000
0/
#932500
b1100 ?
1/
#935000
0/
#937500
b1101 ?
1/
#940000
0/
#942500
b1110 ?
1/
#945000
0/
#947500
b1111 ?
1/
#950000
0/
#952500
b0 ?
1/
01
#955000
0/
#957500
b1 ?
1/
#960000
0/
#962500
b10 ?
1/
12
#965000
0/
#967500
b11 ?
1/
#970000
0/
#972500
b100 ?
1/
#975000
0/
#977500
b101 ?
1/
#980000
0/
#982500
b110 ?
1/
#985000
0/
#987500
b111 ?
1/
#990000
0/
#992500
b1000 ?
1/
#995000
0/
#997500
b1001 ?
1/
#1000000
0/
#1002500
b1010 ?
1/
#1005000
0/
#1007500
b1011 ?
1/
#1010000
0/
#1012500
b1100 ?
1/
#1015000
0/
#1017500
b1101 ?
1/
#1020000
0/
#1022500
b1110 ?
1/
#1025000
0/
#1027500
b1111 ?
1/
#1030000
0/
#1032500
b0 ?
1/
#1035000
0/
#1037500
b1 ?
1/
#1040000
0/
#1042500
b10 ?
1/
#1045000
0/
#1047500
b11 ?
1/
#1050000
0/
#1052500
b100 ?
b10 $
b10 D
b10 %
b10 E
1/
11
#1055000
0/
#1057500
b101 ?
1/
#1060000
0/
#1062500
b110 ?
1/
#1065000
0/
#1067500
b111 ?
1/
#1070000
0/
#1072500
b1000 ?
1/
#1075000
0/
#1077500
b1001 ?
1/
#1080000
0/
#1082500
b1010 ?
1/
#1085000
0/
#1087500
b1011 ?
1/
#1090000
0/
#1092500
b1100 ?
1/
#1095000
0/
#1097500
b1101 ?
1/
#1100000
0/
#1102500
b1110 ?
1/
#1105000
0/
#1107500
b1111 ?
1/
#1110000
0/
#1112500
b0 ?
1/
#1115000
0/
#1117500
b1 ?
1/
#1120000
0/
#1122500
b10 ?
1/
#1125000
0/
#1127500
b11 ?
1/
#1130000
0/
#1132500
b100 ?
1/
#1135000
0/
#1137500
b101 ?
1/
#1140000
0/
#1142500
b110 ?
1/
#1145000
0/
#1147500
b111 ?
1/
#1150000
0/
#1152500
b1000 ?
1/
#1155000
0/
#1157500
b1001 ?
1/
#1160000
0/
#1162500
b1010 ?
1/
01
#1165000
0/
#1167500
b1011 ?
1/
#1170000
0/
#1172500
b1100 ?
1/
#1175000
0/
#1177500
b1101 ?
1/
#1180000
0/
#1182500
b1110 ?
1/
#1185000
0/
#1187500
b1111 ?
1/
#1190000
0/
#1192500
b0 ?
1/
#1195000
0/
#1197500
b1 ?
1/
#1200000
0/
#1202500
b10 ?
1/
#1205000
0/
#1207500
b11 ?
1/
#1210000
0/
#1212500
b100 ?
1/
#1215000
0/
#1217500
b101 ?
1/
#1220000
0/
#1222500
b110 ?
1/
#1225000
0/
#1227500
b111 ?
1/
#1230000
0/
#1232500
b1000 ?
1/
#1235000
0/
#1237500
b1001 ?
1/
#1240000
0/
#1242500
b1010 ?
1/
#1245000
0/
#1247500
b1011 ?
1/
#1250000
0/
#1252500
b1100 ?
1/
#1255000
0/
#1257500
b1101 ?
1/
#1260000
0/
#1262500
b1110 ?
b11 $
b11 D
b110 %
b110 E
1/
11
#1265000
0/
#1267500
b1111 ?
1/
#1270000
0/
#1272500
b0 ?
1/
#1275000
0/
#1277500
b1 ?
1/
#1280000
0/
#1282500
b10 ?
1/
#1285000
0/
#1287500
b11 ?
1/
#1290000
0/
#1292500
b100 ?
1/
#1295000
0/
#1297500
b101 ?
1/
#1300000
0/
#1302500
b110 ?
1/
#1305000
0/
#1307500
b111 ?
1/
#1310000
0/
#1312500
b1000 ?
1/
#1315000
0/
#1317500
b1001 ?
1/
#1320000
0/
#1322500
b1010 ?
1/
#1325000
0/
#1327500
b1011 ?
1/
#1330000
0/
#1332500
b1100 ?
1/
#1335000
0/
#1337500
b1101 ?
1/
#1340000
0/
#1342500
b1110 ?
1/
#1345000
0/
#1347500
b1111 ?
1/
#1350000
0/
#1352500
b0 ?
1/
#1355000
0/
#1357500
b1 ?
1/
#1360000
0/
#1362500
b10 ?
1/
#1365000
0/
#1367500
b11 ?
1/
#1370000
0/
#1372500
b100 ?
1/
01
#1375000
0/
#1377500
b101 ?
1/
#1380000
0/
#1382500
b110 ?
1/
02
#1385000
0/
#1387500
b111 ?
1/
#1390000
0/
#1392500
b1000 ?
1/
#1395000
0/
#1397500
b1001 ?
1/
#1400000
0/
#1402500
b1010 ?
1/
#1405000
0/
#1407500
b1011 ?
1/
#1410000
0/
#1412500
b1100 ?
1/
#1415000
0/
#1417500
b1101 ?
1/
#1420000
0/
#1422500
b1110 ?
1/
#1425000
0/
#1427500
b1111 ?
1/
#1430000
0/
#1432500
b0 ?
1/
#1435000
0/
#1437500
b1 ?
1/
#1440000
0/
#1442500
b10 ?
1/
#1445000
0/
#1447500
b11 ?
1/
#1450000
0/
#1452500
b100 ?
1/
#1455000
0/
#1457500
b101 ?
1/
#1460000
0/
#1462500
b110 ?
1/
#1465000
0/
#1467500
b111 ?
1/
#1470000
0/
#1472500
b1000 ?
b100 $
b100 D
1/
11
#1475000
0/
#1477500
b1001 ?
1/
#1480000
0/
#1482500
b1010 ?
1/
#1485000
0/
#1487500
b1011 ?
1/
#1490000
0/
#1492500
b1100 ?
1/
#1495000
0/
#1497500
b1101 ?
1/
#1500000
0/
#1502500
b1110 ?
1/
#1505000
0/
#1507500
b1111 ?
1/
#1510000
0/
#1512500
b0 ?
1/
#1515000
0/
#1517500
b1 ?
1/
#1520000
0/
#1522500
b10 ?
1/
#1525000
0/
#1527500
b11 ?
1/
#1530000
0/
#1532500
b100 ?
1/
#1535000
0/
#1537500
b101 ?
1/
#1540000
0/
#1542500
b110 ?
1/
#1545000
0/
#1547500
b111 ?
1/
#1550000
0/
#1552500
b1000 ?
1/
#1555000
0/
#1557500
b1001 ?
1/
#1560000
0/
#1562500
b1010 ?
1/
#1565000
0/
#1567500
b1011 ?
1/
#1570000
0/
#1572500
b1100 ?
1/
#1575000
0/
#1577500
b1101 ?
1/
#1580000
0/
#1582500
b1110 ?
1/
01
#1585000
0/
#1587500
b1111 ?
1/
#1590000
0/
#1592500
b0 ?
1/
12
#1595000
0/
#1597500
b1 ?
1/
#1600000
0/
#1602500
b10 ?
1/
#1605000
0/
#1607500
b11 ?
1/
#1610000
0/
#1612500
b100 ?
1/
#1615000
0/
#1617500
b101 ?
1/
#1620000
0/
#1622500
b110 ?
1/
#1625000
0/
#1627500
b111 ?
1/
#1630000
0/
#1632500
b1000 ?
1/
#1635000
0/
#1637500
b1001 ?
1/
#1640000
0/
#1642500
b1010 ?
1/
#1645000
0/
#1647500
b1011 ?
1/
#1650000
0/
#1652500
b1100 ?
1/
#1655000
0/
#1657500
b1101 ?
1/
#1660000
0/
#1662500
b1110 ?
1/
#1665000
0/
#1667500
b1111 ?
1/
#1670000
0/
#1672500
b0 ?
1/
#1675000
0/
#1677500
b1 ?
1/
#1680000
0/
#1682500
b10 ?
1(
1I
b101 $
b101 D
b10110 %
b10110 E
1/
11
#1685000
0/
#1687500
b11 ?
1/
#1690000
0/
#1692500
b100 ?
1/
#1695000
0/
#1697500
b101 ?
1/
#1700000
0/
#1702500
b110 ?
1/
#1705000
0/
#1707500
b111 ?
1/
#1710000
0/
#1712500
b1000 ?
1/
#1715000
0/
#1717500
b1001 ?
1/
#1720000
0/
#1722500
b1010 ?
1/
#1725000
0/
#1727500
b1011 ?
1/
#1730000
0/
#1732500
b1100 ?
1/
#1735000
0/
#1737500
b1101 ?
1/
#1740000
0/
#1742500
b1110 ?
1/
#1745000
0/
#1747500
b1111 ?
1/
#1750000
0/
#1752500
b0 ?
1/
#1755000
0/
#1757500
b1 ?
1/
#1760000
0/
#1762500
b10 ?
1/
#1765000
0/
#1767500
b11 ?
1/
#1770000
0/
#1772500
b100 ?
1/
#1775000
0/
#1777500
b101 ?
1/
#1780000
0/
#1782500
b110 ?
1/
#1785000
0/
#1787500
b111 ?
1/
#1790000
0/
#1792500
b1000 ?
1/
01
#1795000
0/
#1797500
b1001 ?
1/
#1800000
0/
#1802500
b1010 ?
1/
#1805000
0/
#1807500
b1011 ?
1/
#1810000
0/
#1812500
b1100 ?
1/
#1815000
0/
#1817500
b1101 ?
1/
#1820000
0/
#1822500
b1110 ?
1/
#1825000
0/
#1827500
b1111 ?
1/
#1830000
0/
#1832500
b0 ?
1/
#1835000
0/
#1837500
b1 ?
1/
#1840000
0/
#1842500
b10 ?
1/
#1845000
0/
#1847500
b11 ?
1/
#1850000
0/
#1852500
b100 ?
1/
#1855000
0/
#1857500
b101 ?
1/
#1860000
0/
#1862500
b110 ?
1/
#1865000
0/
#1867500
b111 ?
1/
#1870000
0/
#1872500
b1000 ?
1/
#1875000
0/
#1877500
b1001 ?
1/
#1880000
0/
#1882500
b1010 ?
1/
#1885000
0/
#1887500
b1011 ?
1/
#1890000
0/
#1892500
b1100 ?
1&
1F
1'
14
b101 -
b101 5
b101 H
b10 .
b10 6
b10 G
1/
11
#1895000
0/
#1897500
b1101 ?
1"
1B
1/
#1900000
0/
#1902500
b10 A
1#
1C
b1110 ?
1/
#1905000
0/
#1907500
b0 ?
b10 !
b10 @
1/
#1910000
0/
#1912500
b1 ?
1/
#1915000
0/
#1917500
b11 A
b10 ?
1/
#1920000
0/
#1922500
b100 A
1)
b0 ?
b11 !
b11 @
1/
#1925000
0/
#1927500
1)
b100 !
b100 @
1/
#1930000
0/
#1932500
1)
b1 ?
1/
#1935000
0/
#1937500
1)
b10 ?
1/
#1940000
0/
#1942500
1)
b11 ?
1/
#1945000
0/
#1947500
1)
b100 ?
1/
#1950000
0/
#1952500
1)
b101 ?
1/
#1955000
0/
#1957500
1)
b110 ?
1/
#1960000
0/
#1962500
1)
b111 ?
1/
#1965000
0/
#1967500
1)
b1000 ?
1/
#1970000
0/
#1972500
1)
b1001 ?
1/
#1975000
0/
#1977500
b101 A
1)
b1010 ?
1/
#1980000
0/
#1982500
b110 A
1*
1+
1)
b0 ?
b101 !
b101 @
1/
#1985000
0/
#1987500
1)
1*
1+
b110 !
b110 @
1/
#1990000
0/
#1992500
1)
1*
1+
b1 ?
1/
#1995000
0/
#1997500
1)
1*
1+
b10 ?
1/
#2000000
0/
#2002500
1)
1*
1+
b11 ?
1/
#2005000
0/
#2007500
1)
1*
1+
b100 ?
1/
#2010000
0/
#2012500
1)
1*
1+
b101 ?
1/
#2015000
0/
#2017500
1)
1*
1+
b110 ?
1/
#2020000
0/
#2022500
1)
1*
1+
b111 ?
1/
#2025000
0/
#2027500
1)
1*
1+
b1000 ?
1/
#2030000
0/
#2032500
1)
1*
1+
b1001 ?
1/
#2035000
0/
#2037500
b111 A
1)
1*
1+
b1010 ?
1/
#2040000
0/
#2042500
1,
1)
1*
1+
b0 ?
b111 !
b111 @
1/
#2045000
0/
#2047500
1)
1*
1+
1,
b1 ?
1/
#2050000
0/
#2052500
1)
1*
1+
1,
b10 ?
1/
#2055000
0/
#2057500
1)
1*
1+
1,
b11 ?
1/
#2060000
0/
#2062500
1)
1*
1+
1,
b100 ?
1/
#2065000
0/
#2067500
1)
1*
1+
1,
b101 ?
1/
#2070000
0/
#2072500
1)
1*
1+
1,
b110 ?
1/
#2075000
0/
#2077500
1)
1*
1+
1,
b111 ?
1/
#2080000
0/
#2082500
1)
1*
1+
1,
b1000 ?
1/
#2085000
0/
#2087500
1)
1*
1+
1,
b1001 ?
1/
#2090000
0/
#2092500
1)
1*
1+
1,
b1010 ?
1/
#2095000
0/
#2097500
1)
1*
1+
1,
b1011 ?
1/
#2100000
0/
#2102500
1)
1*
1+
1,
b1100 ?
1/
#2105000
0/
#2107500
1)
1*
1+
1,
b1101 ?
1/
#2110000
0/
#2112500
1)
1*
1+
1,
b1110 ?
1/
#2115000
0/
#2117500
1)
1*
1+
1,
b1111 ?
1/
#2120000
0/
#2122500
1)
1*
1+
1,
b0 ?
1/
#2125000
0/
#2127500
1)
1*
1+
1,
b1 ?
1/
#2130000
0/
#2132500
1)
1*
1+
1,
b10 ?
1/
#2135000
0/
#2137500
1)
1*
1+
1,
b11 ?
1/
#2140000
0/
#2142500
1)
1*
1+
1,
b100 ?
1/
#2145000
0/
#2147500
1)
1*
1+
1,
b101 ?
1/
#2150000
0/
#2152500
1)
1*
1+
1,
b110 ?
1/
#2155000
0/
#2157500
1)
1*
1+
1,
b111 ?
1/
#2160000
0/
#2162500
1)
1*
1+
1,
b1000 ?
1/
#2165000
0/
#2167500
1)
1*
1+
1,
b1001 ?
1/
#2170000
0/
#2172500
1)
1*
1+
1,
b1010 ?
1/
#2175000
0/
#2177500
1)
1*
1+
1,
b1011 ?
1/
#2180000
0/
#2182500
1)
1*
1+
1,
b1100 ?
1/
#2185000
0/
#2187500
1)
1*
1+
1,
b1101 ?
1/
#2190000
0/
#2192500
1)
1*
1+
1,
b1110 ?
1/
#2195000
0/
#2197500
1)
1*
1+
1,
b1111 ?
1/
#2200000
0/
#2202500
1)
1*
1+
1,
b0 ?
1/
#2205000
0/
#2207500
1)
1*
1+
1,
b1 ?
1/
#2210000
0/
#2212500
1)
1*
1+
1,
b10 ?
1/
#2215000
0/
#2217500
1)
1*
1+
1,
b11 ?
1/
#2220000
0/
#2222500
1)
1*
1+
1,
b100 ?
1/
#2225000
0/
#2227500
1)
1*
1+
1,
b101 ?
1/
#2230000
0/
#2232500
1)
1*
1+
1,
b110 ?
1/
#2235000
0/
#2237500
1)
1*
1+
1,
b111 ?
1/
#2240000
0/
#2242500
1)
1*
1+
1,
b1000 ?
1/
#2245000
0/
#2247500
1)
1*
1+
1,
b1001 ?
1/
#2250000
0/
#2252500
1)
1*
1+
1,
b1010 ?
1/
#2255000
0/
#2257500
1)
1*
1+
1,
b1011 ?
1/
#2260000
0/
#2262500
1)
1*
1+
1,
b1100 ?
1/
#2265000
0/
#2267500
1)
1*
1+
1,
b1101 ?
1/
#2270000
0/
#2272500
1)
1*
1+
1,
b1110 ?
1/
